{
  "data": [
    {
      "label": "Necesarias",
      "desc": [
        "Las cookies necesarias ayudan a que una página web sea utilizable, activando funciones básicas como la navegación en la página y el acceso a áreas seguras del sitio. La página web no puede funcionar adecuadamente sin estas cookies.",
        "Almacena el estado de consentimiento de cookies del usuario para el dominio actual"
      ],
      "duration": "1 Año"
    },
    {
      "label": "Estadística",
      "desc": [
        "Las cookies estadísticas ayudan a los propietarios de una página web a comprender cómo interactúan los visitantes con el sitio, reuniendo y proporcionando información de forma anónima.",
        "Registra una identificación única que se utiliza para generar datos estadísticos acerca de cómo utiliza el visitante el sitio web."
      ],
      "duration": "2 Años"
    },
    {
      "label": "Marketing",
      "desc": [
        "Las cookies de marketing se utilizan para rastrear a los visitantes en la página web. La intención es mostrar anuncios relevantes y atractivos para el usuario individual, y por lo tanto, más valiosos para los editores y terceros anunciantes.",
        "Utilizada por Facebook para proporcionar una serie de productos publicitarios como pujas en tiempo real de terceros anunciantes."
      ],
      "duration": "3 meses"
    }
  ]
}
