<svg xmlns="http://www.w3.org/2000/svg" width="592" height="121.71">
  <path fill="#f83f28" d="M0 49.87c0 30.66 20.53 49.86 61.33 49.06 20.8-.4 31.2 24.67 38.67 22.67 7.47-2-8.13-23.07 6-34.53 10.8-8.94 16.67-21.2 16.67-37.2C122.67 19.2 102.27.8 61.33.8 20.53.8 0 19.33 0 49.87"/>
  <path fill="#211f35" d="M169.73 60c-8.4 0-15.2 5.33-15.2 20.8 0 14.13 5.07 18.27 11.74 18.27 4.8 0 10.66-2.4 16.93-4.8v-31.6C178.8 61.33 174 60 169.73 60M183.2 1.2L204.4 0v118.67h-19.73l-1.47-7.47c-8.53 5.73-16.67 9.07-23.87 9.07-15.2 0-26.53-13.34-26.53-39.74 0-28 15.07-39.73 32-39.73 6 0 12.27 1.6 18.4 4zm54.13 40.4v77.07h-21.2V42.93zm1.6-20.93c0 7.2-5.2 12.53-12.13 12.53-6.93 0-12.13-5.33-12.13-12.53 0-7.2 5.2-12.54 12.13-12.54 6.93 0 12.13 5.34 12.13 12.54m31.47 97.86h-21.2v-75.6l21.2-1.46v8c10.8-6 19.2-8.94 26.8-8.94 10.67 0 20.67 6.14 20.67 25.2v52.8h-21.2V72.67c0-8-3.47-11.07-9.07-11.07-4.8 0-10.8 2.53-17.2 5.06zm95.47-19.86V87.2c-16.27 1.73-20.4 4.13-20.4 9.73 0 4.67 3.2 6.4 6.8 6.4 4.26 0 9.2-1.86 13.6-4.66m0-30.27c0-6-2.94-8.27-8.4-8.27-5.47 0-13.74 1.74-25.74 5.34l-3.06-18.8c10.66-3.47 23.6-6 33.2-6 15.6 0 25.2 6.93 25.2 26.8v51.2H371.2l-2.4-6.54c-8.4 6-15.73 8.14-22.53 8.14-11.2 0-21.07-7.2-21.07-21.74 0-15.46 9.73-22.53 40.8-25.46V68.4zm123.86-27.73c10.8 0 19.07 7.06 19.07 25.2v52.8h-21.2v-46c0-8-2.94-11.07-7.87-11.07-4.54 0-10.14 2.13-15.47 4.67.26 2 .26 4.4.26 6.93v45.33h-21.2V72.67c0-8-3.06-11.07-7.86-11.07-4.4 0-9.74 2.53-15.34 5.07v52h-21.2V42.93l21.2-1.46v8c10-6 18-8.94 25.2-8.94 6.67 0 12.4 2.8 15.74 8.94 11.46-6.14 19.73-8.8 28.66-8.8m65.08 60.13c-9.07 0-15.47-5.2-15.47-20.4S545.73 60 554.8 60c8.93 0 15.46 5.2 15.46 20.4s-6.53 20.4-15.46 20.4m0-60.13c-22.94 0-37.2 13.2-37.2 39.73 0 26.8 14.26 39.73 37.2 39.73 23.06 0 37.2-12.93 37.2-39.73 0-26.67-14.14-39.73-37.2-39.73"/>
</svg>
